{
    "status": 200,
    "data": [
        {
            "id": 1,
            "locale": "nl",
            "name": "Nederlands",
            "native_name": "Nederlands",
            "region": "",
            "native_region": "",
            "script": "",
            "variant": "",
            "direction": "ltr",
            "is_public": false,
            "is_localized": false,
            "created_at": "2020-11-23T06:52:07+00:00",
            "updated_at": "2020-11-23T06:52:07+00:00",
            "resource_type": "locale",
            "resource_url": "https://trilogy-akashkhot.kayako.com/api/v1/locales/1"
        },
        {
            "id": 2,
            "locale": "fr",
            "name": "français",
            "native_name": "Français",
            "region": "",
            "native_region": "",
            "script": "",
            "variant": "",
            "direction": "ltr",
            "is_public": false,
            "is_localized": false,
            "created_at": "2020-11-23T06:52:07+00:00",
            "updated_at": "2020-11-23T06:52:07+00:00",
            "resource_type": "locale",
            "resource_url": "https://trilogy-akashkhot.kayako.com/api/v1/locales/2"
        },
        {
            "id": 3,
            "locale": "en-us",
            "name": "English",
            "native_name": "English (United States)",
            "region": "US",
            "native_region": "United States",
            "script": "",
            "variant": "",
            "direction": "ltr",
            "is_public": true,
            "is_localized": true,
            "created_at": "2020-11-23T06:52:07+00:00",
            "updated_at": "2021-07-12T03:48:19+00:00",
            "resource_type": "locale",
            "resource_url": "https://trilogy-akashkhot.kayako.com/api/v1/locales/3"
        },
        {
            "id": 4,
            "locale": "pt",
            "name": "português",
            "native_name": "Português",
            "region": "",
            "native_region": "",
            "script": "",
            "variant": "",
            "direction": "ltr",
            "is_public": false,
            "is_localized": false,
            "created_at": "2020-11-23T06:52:07+00:00",
            "updated_at": "2020-11-23T06:52:07+00:00",
            "resource_type": "locale",
            "resource_url": "https://trilogy-akashkhot.kayako.com/api/v1/locales/4"
        },
        {
            "id": 5,
            "locale": "it",
            "name": "italiano",
            "native_name": "Italiano",
            "region": "",
            "native_region": "",
            "script": "",
            "variant": "",
            "direction": "ltr",
            "is_public": false,
            "is_localized": false,
            "created_at": "2020-11-23T06:52:07+00:00",
            "updated_at": "2021-02-26T12:50:08+00:00",
            "resource_type": "locale",
            "resource_url": "https://trilogy-akashkhot.kayako.com/api/v1/locales/5"
        },
        {
            "id": 6,
            "locale": "pt-br",
            "name": "português",
            "native_name": "Português (Brasil)",
            "region": "BR",
            "native_region": "Brasil",
            "script": "",
            "variant": "",
            "direction": "ltr",
            "is_public": false,
            "is_localized": false,
            "created_at": "2020-11-23T06:52:07+00:00",
            "updated_at": "2020-11-23T06:52:07+00:00",
            "resource_type": "locale",
            "resource_url": "https://trilogy-akashkhot.kayako.com/api/v1/locales/6"
        },
        {
            "id": 7,
            "locale": "es",
            "name": "español",
            "native_name": "Español",
            "region": "",
            "native_region": "",
            "script": "",
            "variant": "",
            "direction": "ltr",
            "is_public": false,
            "is_localized": false,
            "created_at": "2020-11-23T06:52:07+00:00",
            "updated_at": "2020-12-28T12:39:44+00:00",
            "resource_type": "locale",
            "resource_url": "https://trilogy-akashkhot.kayako.com/api/v1/locales/7"
        },
        {
            "id": 8,
            "locale": "de",
            "name": "Deutsch",
            "native_name": "Deutsch",
            "region": "",
            "native_region": "",
            "script": "",
            "variant": "",
            "direction": "ltr",
            "is_public": false,
            "is_localized": false,
            "created_at": "2020-11-23T06:52:07+00:00",
            "updated_at": "2021-07-12T03:51:52+00:00",
            "resource_type": "locale",
            "resource_url": "https://trilogy-akashkhot.kayako.com/api/v1/locales/8"
        },
        {
            "id": 9,
            "locale": "en-gb",
            "name": "English",
            "native_name": "English (United Kingdom)",
            "region": "GB",
            "native_region": "United Kingdom",
            "script": "",
            "variant": "",
            "direction": "ltr",
            "is_public": false,
            "is_localized": false,
            "created_at": "2020-11-23T06:52:07+00:00",
            "updated_at": "2021-07-12T03:42:19+00:00",
            "resource_type": "locale",
            "resource_url": "https://trilogy-akashkhot.kayako.com/api/v1/locales/9"
        },
        {
            "id": 10,
            "locale": "es-419",
            "name": "español",
            "native_name": "Español (Latinoamérica)",
            "region": "419",
            "native_region": "Latinoamérica",
            "script": "",
            "variant": "",
            "direction": "ltr",
            "is_public": false,
            "is_localized": false,
            "created_at": "2020-11-23T06:52:07+00:00",
            "updated_at": "2020-11-23T06:52:07+00:00",
            "resource_type": "locale",
            "resource_url": "https://trilogy-akashkhot.kayako.com/api/v1/locales/10"
        },
        {
            "id": 11,
            "locale": "ms",
            "name": "Bahasa Melayu",
            "native_name": "Bahasa Melayu",
            "region": "",
            "native_region": "",
            "script": "",
            "variant": "",
            "direction": "ltr",
            "is_public": false,
            "is_localized": false,
            "created_at": "2020-11-23T06:52:07+00:00",
            "updated_at": "2021-07-08T07:00:29+00:00",
            "resource_type": "locale",
            "resource_url": "https://trilogy-akashkhot.kayako.com/api/v1/locales/11"
        },
        {
            "id": 12,
            "locale": "zh-tw",
            "name": "中文",
            "native_name": "中文（台灣）",
            "region": "TW",
            "native_region": "台灣",
            "script": "",
            "variant": "",
            "direction": "ltr",
            "is_public": false,
            "is_localized": false,
            "created_at": "2020-11-23T06:52:07+00:00",
            "updated_at": "2020-11-23T06:52:07+00:00",
            "resource_type": "locale",
            "resource_url": "https://trilogy-akashkhot.kayako.com/api/v1/locales/12"
        },
        {
            "id": 13,
            "locale": "zh-cn",
            "name": "中文",
            "native_name": "中文（中国）",
            "region": "CN",
            "native_region": "中国",
            "script": "",
            "variant": "",
            "direction": "ltr",
            "is_public": false,
            "is_localized": false,
            "created_at": "2020-11-23T06:52:07+00:00",
            "updated_at": "2020-11-23T06:52:07+00:00",
            "resource_type": "locale",
            "resource_url": "https://trilogy-akashkhot.kayako.com/api/v1/locales/13"
        },
        {
            "id": 14,
            "locale": "pl",
            "name": "polski",
            "native_name": "Polski",
            "region": "",
            "native_region": "",
            "script": "",
            "variant": "",
            "direction": "ltr",
            "is_public": false,
            "is_localized": false,
            "created_at": "2020-11-23T06:52:07+00:00",
            "updated_at": "2020-11-23T06:52:07+00:00",
            "resource_type": "locale",
            "resource_url": "https://trilogy-akashkhot.kayako.com/api/v1/locales/14"
        },
        {
            "id": 15,
            "locale": "ro",
            "name": "română",
            "native_name": "Română",
            "region": "",
            "native_region": "",
            "script": "",
            "variant": "",
            "direction": "ltr",
            "is_public": false,
            "is_localized": false,
            "created_at": "2020-11-23T06:52:07+00:00",
            "updated_at": "2020-11-23T06:52:07+00:00",
            "resource_type": "locale",
            "resource_url": "https://trilogy-akashkhot.kayako.com/api/v1/locales/15"
        },
        {
            "id": 16,
            "locale": "is",
            "name": "íslenska",
            "native_name": "íslenska",
            "region": "",
            "native_region": "",
            "script": "",
            "variant": "",
            "direction": "ltr",
            "is_public": false,
            "is_localized": false,
            "created_at": "2020-11-23T06:52:07+00:00",
            "updated_at": "2020-11-23T06:52:07+00:00",
            "resource_type": "locale",
            "resource_url": "https://trilogy-akashkhot.kayako.com/api/v1/locales/16"
        },
        {
            "id": 17,
            "locale": "vi",
            "name": "Tiếng Việt",
            "native_name": "Tiếng Việt",
            "region": "",
            "native_region": "",
            "script": "",
            "variant": "",
            "direction": "ltr",
            "is_public": false,
            "is_localized": false,
            "created_at": "2020-11-23T06:52:07+00:00",
            "updated_at": "2020-11-23T06:52:07+00:00",
            "resource_type": "locale",
            "resource_url": "https://trilogy-akashkhot.kayako.com/api/v1/locales/17"
        },
        {
            "id": 18,
            "locale": "ru",
            "name": "русский",
            "native_name": "русский",
            "region": "",
            "native_region": "",
            "script": "",
            "variant": "",
            "direction": "ltr",
            "is_public": false,
            "is_localized": false,
            "created_at": "2020-11-23T06:52:07+00:00",
            "updated_at": "2020-11-23T06:52:07+00:00",
            "resource_type": "locale",
            "resource_url": "https://trilogy-akashkhot.kayako.com/api/v1/locales/18"
        },
        {
            "id": 19,
            "locale": "he",
            "name": "עברית",
            "native_name": "עברית",
            "region": "",
            "native_region": "",
            "script": "",
            "variant": "",
            "direction": "rtl",
            "is_public": false,
            "is_localized": false,
            "created_at": "2020-11-23T06:52:07+00:00",
            "updated_at": "2020-11-23T06:52:07+00:00",
            "resource_type": "locale",
            "resource_url": "https://trilogy-akashkhot.kayako.com/api/v1/locales/19"
        },
        {
            "id": 20,
            "locale": "no",
            "name": "norsk",
            "native_name": "Norsk",
            "region": "",
            "native_region": "",
            "script": "",
            "variant": "",
            "direction": "ltr",
            "is_public": false,
            "is_localized": false,
            "created_at": "2020-11-23T06:52:07+00:00",
            "updated_at": "2020-11-23T06:52:07+00:00",
            "resource_type": "locale",
            "resource_url": "https://trilogy-akashkhot.kayako.com/api/v1/locales/20"
        },
        {
            "id": 21,
            "locale": "fil",
            "name": "Filipino",
            "native_name": "Filipino",
            "region": "",
            "native_region": "",
            "script": "",
            "variant": "",
            "direction": "ltr",
            "is_public": false,
            "is_localized": false,
            "created_at": "2020-11-23T06:52:07+00:00",
            "updated_at": "2020-12-31T11:42:08+00:00",
            "resource_type": "locale",
            "resource_url": "https://trilogy-akashkhot.kayako.com/api/v1/locales/21"
        },
        {
            "id": 22,
            "locale": "ar",
            "name": "العربية",
            "native_name": "العربية",
            "region": "",
            "native_region": "",
            "script": "",
            "variant": "",
            "direction": "rtl",
            "is_public": false,
            "is_localized": false,
            "created_at": "2020-11-23T06:52:07+00:00",
            "updated_at": "2020-11-23T06:52:07+00:00",
            "resource_type": "locale",
            "resource_url": "https://trilogy-akashkhot.kayako.com/api/v1/locales/22"
        },
        {
            "id": 23,
            "locale": "ja",
            "name": "日本語",
            "native_name": "日本語",
            "region": "",
            "native_region": "",
            "script": "",
            "variant": "",
            "direction": "ltr",
            "is_public": false,
            "is_localized": false,
            "created_at": "2020-11-23T06:52:07+00:00",
            "updated_at": "2020-11-23T06:52:07+00:00",
            "resource_type": "locale",
            "resource_url": "https://trilogy-akashkhot.kayako.com/api/v1/locales/23"
        },
        {
            "id": 24,
            "locale": "ko",
            "name": "한국어",
            "native_name": "한국어",
            "region": "",
            "native_region": "",
            "script": "",
            "variant": "",
            "direction": "ltr",
            "is_public": false,
            "is_localized": false,
            "created_at": "2020-11-23T06:52:07+00:00",
            "updated_at": "2020-11-23T06:52:07+00:00",
            "resource_type": "locale",
            "resource_url": "https://trilogy-akashkhot.kayako.com/api/v1/locales/24"
        },
        {
            "id": 25,
            "locale": "sl",
            "name": "slovenščina",
            "native_name": "Slovenščina",
            "region": "",
            "native_region": "",
            "script": "",
            "variant": "",
            "direction": "ltr",
            "is_public": false,
            "is_localized": false,
            "created_at": "2020-11-23T06:52:07+00:00",
            "updated_at": "2020-11-23T06:52:07+00:00",
            "resource_type": "locale",
            "resource_url": "https://trilogy-akashkhot.kayako.com/api/v1/locales/25"
        },
        {
            "id": 26,
            "locale": "hr",
            "name": "hrvatski",
            "native_name": "Hrvatski",
            "region": "",
            "native_region": "",
            "script": "",
            "variant": "",
            "direction": "ltr",
            "is_public": false,
            "is_localized": false,
            "created_at": "2020-11-23T06:52:07+00:00",
            "updated_at": "2020-11-23T06:52:07+00:00",
            "resource_type": "locale",
            "resource_url": "https://trilogy-akashkhot.kayako.com/api/v1/locales/26"
        },
        {
            "id": 27,
            "locale": "id",
            "name": "Bahasa Indonesia",
            "native_name": "Bahasa Indonesia",
            "region": "",
            "native_region": "",
            "script": "",
            "variant": "",
            "direction": "ltr",
            "is_public": false,
            "is_localized": false,
            "created_at": "2020-11-23T06:52:07+00:00",
            "updated_at": "2021-07-08T07:00:30+00:00",
            "resource_type": "locale",
            "resource_url": "https://trilogy-akashkhot.kayako.com/api/v1/locales/27"
        },
        {
            "id": 28,
            "locale": "cs",
            "name": "čeština",
            "native_name": "čeština",
            "region": "",
            "native_region": "",
            "script": "",
            "variant": "",
            "direction": "ltr",
            "is_public": false,
            "is_localized": false,
            "created_at": "2020-11-23T06:52:07+00:00",
            "updated_at": "2020-11-23T06:52:07+00:00",
            "resource_type": "locale",
            "resource_url": "https://trilogy-akashkhot.kayako.com/api/v1/locales/28"
        },
        {
            "id": 29,
            "locale": "th",
            "name": "ไทย",
            "native_name": "ไทย",
            "region": "",
            "native_region": "",
            "script": "",
            "variant": "",
            "direction": "ltr",
            "is_public": false,
            "is_localized": false,
            "created_at": "2020-11-23T06:52:07+00:00",
            "updated_at": "2020-11-23T06:52:07+00:00",
            "resource_type": "locale",
            "resource_url": "https://trilogy-akashkhot.kayako.com/api/v1/locales/29"
        },
        {
            "id": 30,
            "locale": "fi",
            "name": "suomi",
            "native_name": "Suomi",
            "region": "",
            "native_region": "",
            "script": "",
            "variant": "",
            "direction": "ltr",
            "is_public": true,
            "is_localized": false,
            "created_at": "2020-11-23T06:52:07+00:00",
            "updated_at": "2021-09-29T09:53:50+00:00",
            "resource_type": "locale",
            "resource_url": "https://trilogy-akashkhot.kayako.com/api/v1/locales/30"
        },
        {
            "id": 31,
            "locale": "tr",
            "name": "Türkçe",
            "native_name": "Türkçe",
            "region": "",
            "native_region": "",
            "script": "",
            "variant": "",
            "direction": "ltr",
            "is_public": false,
            "is_localized": false,
            "created_at": "2020-11-23T06:52:07+00:00",
            "updated_at": "2020-11-23T06:52:07+00:00",
            "resource_type": "locale",
            "resource_url": "https://trilogy-akashkhot.kayako.com/api/v1/locales/31"
        },
        {
            "id": 32,
            "locale": "sv",
            "name": "svenska",
            "native_name": "Svenska",
            "region": "",
            "native_region": "",
            "script": "",
            "variant": "",
            "direction": "ltr",
            "is_public": false,
            "is_localized": false,
            "created_at": "2020-11-23T06:52:07+00:00",
            "updated_at": "2020-11-23T06:52:07+00:00",
            "resource_type": "locale",
            "resource_url": "https://trilogy-akashkhot.kayako.com/api/v1/locales/32"
        },
        {
            "id": 33,
            "locale": "el",
            "name": "Ελληνικά",
            "native_name": "Ελληνικά",
            "region": "",
            "native_region": "",
            "script": "",
            "variant": "",
            "direction": "ltr",
            "is_public": false,
            "is_localized": false,
            "created_at": "2020-11-23T06:52:07+00:00",
            "updated_at": "2020-11-23T06:52:07+00:00",
            "resource_type": "locale",
            "resource_url": "https://trilogy-akashkhot.kayako.com/api/v1/locales/33"
        },
        {
            "id": 34,
            "locale": "bg",
            "name": "български",
            "native_name": "български",
            "region": "",
            "native_region": "",
            "script": "",
            "variant": "",
            "direction": "ltr",
            "is_public": false,
            "is_localized": false,
            "created_at": "2020-11-23T06:52:07+00:00",
            "updated_at": "2020-11-23T06:52:07+00:00",
            "resource_type": "locale",
            "resource_url": "https://trilogy-akashkhot.kayako.com/api/v1/locales/34"
        },
        {
            "id": 35,
            "locale": "ee",
            "name": "eʋegbe",
            "native_name": "Eʋegbe",
            "region": "",
            "native_region": "",
            "script": "",
            "variant": "",
            "direction": "ltr",
            "is_public": false,
            "is_localized": false,
            "created_at": "2020-11-23T06:52:07+00:00",
            "updated_at": "2020-11-23T06:52:07+00:00",
            "resource_type": "locale",
            "resource_url": "https://trilogy-akashkhot.kayako.com/api/v1/locales/35"
        },
        {
            "id": 36,
            "locale": "da",
            "name": "dansk",
            "native_name": "Dansk",
            "region": "",
            "native_region": "",
            "script": "",
            "variant": "",
            "direction": "ltr",
            "is_public": false,
            "is_localized": false,
            "created_at": "2020-11-23T06:52:07+00:00",
            "updated_at": "2020-11-23T06:52:07+00:00",
            "resource_type": "locale",
            "resource_url": "https://trilogy-akashkhot.kayako.com/api/v1/locales/36"
        },
        {
            "id": 37,
            "locale": "sk",
            "name": "slovenčina",
            "native_name": "Slovenčina",
            "region": "",
            "native_region": "",
            "script": "",
            "variant": "",
            "direction": "ltr",
            "is_public": false,
            "is_localized": false,
            "created_at": "2020-11-23T06:52:07+00:00",
            "updated_at": "2020-11-23T06:52:07+00:00",
            "resource_type": "locale",
            "resource_url": "https://trilogy-akashkhot.kayako.com/api/v1/locales/37"
        },
        {
            "id": 38,
            "locale": "bs",
            "name": "bosanski",
            "native_name": "Bosanski",
            "region": "",
            "native_region": "",
            "script": "",
            "variant": "",
            "direction": "ltr",
            "is_public": false,
            "is_localized": false,
            "created_at": "2020-11-23T06:52:07+00:00",
            "updated_at": "2020-11-23T06:52:07+00:00",
            "resource_type": "locale",
            "resource_url": "https://trilogy-akashkhot.kayako.com/api/v1/locales/38"
        },
        {
            "id": 39,
            "locale": "hu",
            "name": "magyar",
            "native_name": "Magyar",
            "region": "",
            "native_region": "",
            "script": "",
            "variant": "",
            "direction": "ltr",
            "is_public": false,
            "is_localized": false,
            "created_at": "2020-11-23T06:52:07+00:00",
            "updated_at": "2020-11-23T06:52:07+00:00",
            "resource_type": "locale",
            "resource_url": "https://trilogy-akashkhot.kayako.com/api/v1/locales/39"
        },
        {
            "id": 40,
            "locale": "ca",
            "name": "català",
            "native_name": "Català",
            "region": "",
            "native_region": "",
            "script": "",
            "variant": "",
            "direction": "ltr",
            "is_public": false,
            "is_localized": false,
            "created_at": "2020-11-23T06:52:07+00:00",
            "updated_at": "2020-11-23T06:52:07+00:00",
            "resource_type": "locale",
            "resource_url": "https://trilogy-akashkhot.kayako.com/api/v1/locales/40"
        },
        {
            "id": 41,
            "locale": "lt",
            "name": "lietuvių",
            "native_name": "Lietuvių",
            "region": "",
            "native_region": "",
            "script": "",
            "variant": "",
            "direction": "ltr",
            "is_public": false,
            "is_localized": false,
            "created_at": "2020-11-23T06:52:07+00:00",
            "updated_at": "2020-11-23T06:52:07+00:00",
            "resource_type": "locale",
            "resource_url": "https://trilogy-akashkhot.kayako.com/api/v1/locales/41"
        },
        {
            "id": 42,
            "locale": "lv",
            "name": "latviešu",
            "native_name": "Latviešu",
            "region": "",
            "native_region": "",
            "script": "",
            "variant": "",
            "direction": "ltr",
            "is_public": false,
            "is_localized": false,
            "created_at": "2020-11-23T06:52:07+00:00",
            "updated_at": "2020-11-23T06:52:07+00:00",
            "resource_type": "locale",
            "resource_url": "https://trilogy-akashkhot.kayako.com/api/v1/locales/42"
        },
        {
            "id": 43,
            "locale": "sr",
            "name": "Српски",
            "native_name": "Српски",
            "region": "",
            "native_region": "",
            "script": "",
            "variant": "",
            "direction": "ltr",
            "is_public": false,
            "is_localized": false,
            "created_at": "2020-11-23T06:52:07+00:00",
            "updated_at": "2020-11-23T06:52:07+00:00",
            "resource_type": "locale",
            "resource_url": "https://trilogy-akashkhot.kayako.com/api/v1/locales/43"
        },
        {
            "id": 44,
            "locale": "uk",
            "name": "українська",
            "native_name": "українська",
            "region": "",
            "native_region": "",
            "script": "",
            "variant": "",
            "direction": "ltr",
            "is_public": false,
            "is_localized": false,
            "created_at": "2020-11-23T06:52:07+00:00",
            "updated_at": "2020-11-23T06:52:07+00:00",
            "resource_type": "locale",
            "resource_url": "https://trilogy-akashkhot.kayako.com/api/v1/locales/44"
        }
    ],
    "resource": "locale",
    "total_count": 44
}